<svg width="19" height="18" viewBox="0 0 19 18" fill="none" xmlns="http://www.w3.org/2000/svg">
<path d="M17.375 9V2.75C17.375 2.05965 16.7874 1.5 16.0625 1.5H2.9375C2.21263 1.5 1.625 2.05965 1.625 2.75V15.25C1.625 15.9404 2.21263 16.5 2.9375 16.5H9.5" stroke="black" stroke-width="2.5" stroke-linecap="round" stroke-linejoin="round"/>
<path d="M13 14.8333C14.4497 14.8333 15.625 13.714 15.625 12.3333C15.625 10.9526 14.4497 9.83331 13 9.83331C11.5503 9.83331 10.375 10.9526 10.375 12.3333C10.375 13.714 11.5503 14.8333 13 14.8333Z" fill="#2F88FF" stroke="black" stroke-width="2.5"/>
<path d="M15.1875 14L17.375 15.6667" stroke="black" stroke-width="2.5" stroke-linecap="round" stroke-linejoin="round"/>
<path d="M5.125 5.66669H13.875" stroke="black" stroke-width="2.5" stroke-linecap="round" stroke-linejoin="round"/>
<path d="M5.125 9H8.625" stroke="black" stroke-width="2.5" stroke-linecap="round" stroke-linejoin="round"/>
</svg>
